<svg width="78" height="78" viewBox="0 0 78 78" fill="none" xmlns="http://www.w3.org/2000/svg">
<g clip-path="url(#clip0_422_330)">
<path d="M74.3574 34.9331C74.3574 38.584 73.6046 42.0582 72.2466 45.2098C70.935 48.2549 69.0569 50.9982 66.7462 53.3072C62.0437 58.0102 55.5471 60.9184 48.3721 60.9184H43.2704C28.9197 60.9184 17.285 49.2856 17.285 34.9331H74.3574Z" fill="#F29500"/>
<path d="M74.3575 34.9331C74.3575 38.584 73.6047 42.0582 72.2467 45.2098C67.812 48.7333 62.1997 50.8393 56.0935 50.8393H50.9935C40.2152 50.8393 30.9704 44.2784 27.0327 34.9331H74.3575Z" fill="#FFA90B"/>
<path d="M76.8533 31.7007V34.6809C76.8533 36.074 75.7244 37.2047 74.3313 37.2047H17.313C15.9193 37.2047 14.7892 36.074 14.7892 34.6809V31.7007C14.7892 30.3058 15.9193 29.1775 17.313 29.1775H74.3313C75.7244 29.1775 76.8533 30.3058 76.8533 31.7007Z" fill="#FFB52D"/>
<path d="M76.8532 31.7007V32.6963H27.013C25.6199 32.6963 24.491 31.5674 24.491 30.1743V29.1775H74.3312C75.7244 29.1775 76.8532 30.3058 76.8532 31.7007Z" fill="#FFCD71"/>
<path d="M75.2882 59.3634L49.0124 72.6864C45.4818 74.9328 40.9906 74.8942 37.5164 72.656C35.8859 71.6045 35.3735 71.5033 26.7976 67.2633C22.9873 65.3983 19.5155 64.805 13.8568 64.1075V47.6484H32.6224C33.7882 47.6484 34.904 48.112 35.7282 48.9362C35.9865 49.1939 34.0167 47.2247 44.1696 57.3752C44.9408 58.1465 45.3229 59.176 45.2943 60.1948L45.4746 60.071L73.0173 53.137C76.6664 52.6758 78.3011 57.4514 75.2882 59.3634Z" fill="#F2BB88"/>
<path d="M44.2743 62.6507C42.8259 64.1486 40.4431 64.1718 38.9655 62.6971L31.9476 55.678C31.5727 55.3031 31.065 55.0925 30.5348 55.0925H13.8568V47.6484H32.623C33.7888 47.6484 34.9052 48.1114 35.7288 48.935C35.9865 49.1933 34.0167 47.2241 44.1696 57.3746C45.602 58.807 45.7037 61.1713 44.2743 62.6507Z" fill="#F2D1A5"/>
<path d="M14.7958 47.192V67.54C14.7958 67.8293 14.7678 68.1137 14.7178 68.3892C14.7178 68.3892 14.7178 68.3892 14.716 68.3892C14.3155 70.5423 12.416 72.1859 10.1499 72.1859H5.79262C3.23729 72.1859 1.14673 70.096 1.14673 67.54V47.192C1.14673 44.9146 2.80644 43.0079 4.97615 42.6193C5.24216 42.5705 5.51471 42.5461 5.79262 42.5461H10.1499C12.7052 42.5461 14.7958 44.6367 14.7958 47.192Z" fill="#F44545"/>
<path d="M14.7958 47.192V67.54C14.7958 67.8293 14.7678 68.1137 14.7178 68.3892C14.7178 68.3892 14.7178 68.3892 14.716 68.3892C14.45 68.438 14.1775 68.4624 13.8978 68.4624H9.54231C6.98698 68.4624 4.89642 66.3719 4.89642 63.8165V43.4679C4.89642 43.1793 4.92439 42.8949 4.97617 42.6193C5.24217 42.5705 5.51472 42.5461 5.79263 42.5461H10.1499C12.7052 42.5461 14.7958 44.6367 14.7958 47.192Z" fill="#FB5858"/>
<path d="M10.7188 64.8674C10.7188 66.3849 9.48878 67.615 7.9713 67.615C6.45381 67.615 5.22375 66.3849 5.22375 64.8674C5.22375 63.3499 6.45381 62.1199 7.9713 62.1199C9.48878 62.1199 10.7188 63.3499 10.7188 64.8674Z" fill="#C42D2D"/>
<path d="M5.69923 62.9423C5.09462 62.7507 4.45073 63.0846 4.25851 63.688C3.46049 66.2022 5.34872 68.7623 7.97129 68.7623C10.119 68.7623 11.8662 67.0151 11.8662 64.8674C11.8662 63.3089 10.9408 61.9039 9.50901 61.2886C8.92761 61.038 8.25277 61.307 8.00224 61.889C7.7523 62.4704 8.02069 63.1453 8.60269 63.3958C10.2011 64.0831 9.69587 66.4682 7.97129 66.4682C6.88704 66.4682 6.11877 65.4096 6.44488 64.3824C6.6365 63.779 6.30266 63.1339 5.69923 62.9423Z" fill="black"/>
<path d="M57.7943 10.642C58.3025 10.642 58.716 11.0556 58.716 11.5638V13.9281C58.716 14.5619 59.2296 15.0755 59.8634 15.0755C60.4966 15.0755 61.0101 14.5619 61.0101 13.9281V11.5638C61.0101 9.79106 59.5676 8.34856 57.7943 8.34856C57.286 8.34856 56.8725 7.93497 56.8725 7.42676V3.58424C56.8725 2.95107 56.3589 2.4375 55.7257 2.4375C55.0919 2.4375 54.5784 2.95107 54.5784 3.58424V7.42676C54.5784 9.19954 56.0215 10.642 57.7943 10.642Z" fill="black"/>
<path d="M33.8489 10.642C34.3571 10.642 34.7707 11.0556 34.7707 11.5638V13.9281C34.7707 14.5619 35.2836 15.0755 35.9174 15.0755C36.5512 15.0755 37.0642 14.5619 37.0642 13.9281V11.5638C37.0642 9.79106 35.6217 8.34856 33.8489 8.34856C33.3401 8.34856 32.9271 7.93497 32.9271 7.42676V3.58424C32.9271 2.95107 32.4135 2.4375 31.7797 2.4375C31.1466 2.4375 30.633 2.95107 30.633 3.58424V7.42676C30.633 9.19954 32.0755 10.642 33.8489 10.642Z" fill="black"/>
<path d="M50.8941 17.4718C51.7219 17.4718 52.3961 18.1455 52.3961 18.9739V22.0011C52.3961 22.6343 52.9091 23.1478 53.5429 23.1478C54.1767 23.1478 54.6896 22.6343 54.6896 22.0011V18.9739C54.6896 16.8809 52.9871 15.1778 50.8941 15.1778C50.0658 15.1778 49.3921 14.5041 49.3921 13.6758V8.75612C49.3921 8.12294 48.8785 7.60938 48.2454 7.60938C47.6116 7.60938 47.098 8.12294 47.098 8.75612V13.6758C47.098 15.7687 48.8012 17.4718 50.8941 17.4718Z" fill="black"/>
<path d="M78 34.6808V31.7006C78 29.6761 76.3546 28.03 74.3313 28.03H25.8479C25.2129 28.03 24.7005 28.5442 24.7005 29.1774C24.7005 29.8105 25.2129 30.3241 25.8479 30.3241H74.3313C75.09 30.3241 75.7059 30.9406 75.7059 31.7006C75.6363 34.9468 75.9386 34.7034 75.4994 35.4026C75.2596 35.796 74.8252 36.0572 74.3313 36.0572C72.8304 36.0572 19.0537 36.0572 17.313 36.0572C16.8191 36.0572 16.3847 35.796 16.1431 35.4026C15.7896 34.8403 15.9955 34.4606 15.9366 31.7006C15.9366 30.9406 16.5543 30.3241 17.313 30.3241H21.2597C21.8929 30.3241 22.407 29.8105 22.407 29.1774C22.407 28.5442 21.8929 28.03 21.2597 28.03H17.313C15.2879 28.03 13.6425 29.6761 13.6425 31.7006V34.6808C13.6425 36.3661 14.7851 37.7913 16.3371 38.218C16.6947 41.1697 17.5285 43.9761 18.7579 46.5571H15.9074C15.5908 43.6607 13.1289 41.3988 10.1499 41.3988H5.79263C2.59818 41.3988 0 43.9976 0 47.192V47.9918C0 48.625 0.513565 49.1386 1.14674 49.1386C1.77992 49.1386 2.29408 48.625 2.29408 47.9918V47.192C2.29408 45.2621 3.86453 43.6929 5.79263 43.6929H10.1499C11.8608 43.6929 13.2908 44.9301 13.5907 46.5571C13.6806 47.0432 13.6485 45.7763 13.6485 67.54C13.6485 69.4705 12.078 71.041 10.1499 71.041H5.79263C3.86453 71.041 2.29408 69.4705 2.29408 67.54V52.7323C2.29408 52.0992 1.77992 51.5856 1.14674 51.5856C0.513565 51.5856 0 52.0992 0 52.7323V67.54C0 70.7351 2.59818 73.3344 5.79263 73.3344H10.1499C13.3426 73.3344 15.9425 70.7351 15.9425 67.54V65.5108C18.7454 66.1064 21.9964 66.1547 26.3936 68.3077C35.2051 72.6602 35.4384 72.6352 36.9713 73.6219C40.8186 76.1016 45.7543 76.1296 49.6319 73.6879L60.5376 68.1595C61.1017 67.8721 61.3279 67.1824 61.0405 66.6182C60.7548 66.0523 60.0651 65.8274 59.4992 66.1136C47.777 72.0586 48.5405 71.6646 48.4483 71.7211C45.3121 73.7189 41.3155 73.6927 38.2145 71.6956C36.5119 70.5964 35.974 70.4857 27.401 66.2463C22.5909 63.8927 18.9864 63.829 15.9425 63.1822V48.8511H32.7093C33.5733 48.8511 34.3868 49.1874 34.9986 49.7991L43.4203 58.2209C45.0551 59.8556 43.9958 62.6632 41.666 62.6632C40.4639 62.6632 39.8206 61.8694 39.7808 61.842C33.596 55.6554 32.4564 54.5152 32.2885 54.3468C32.2874 54.3462 32.2868 54.3456 32.2862 54.345C32.2814 54.3403 32.2755 54.3343 32.2707 54.3296C32.2731 54.3313 32.2755 54.3337 32.2784 54.3367C32.2743 54.3325 32.2689 54.3278 32.263 54.3212C31.8148 53.8731 31.0882 53.8731 30.6401 54.3212C30.192 54.7693 30.192 55.4959 30.6401 55.944C31.8559 57.1598 36.9612 62.2675 38.2288 63.5339C40.9864 66.282 45.7388 64.8347 46.419 61.0119C46.7785 61.0273 73.0643 54.2986 73.4731 54.2986C75.675 54.2986 76.5444 57.1783 74.7121 58.4L63.7273 63.9695C63.1631 64.2557 62.937 64.9454 63.2227 65.5108C63.5154 66.085 64.2105 66.2975 64.7639 66.0154C76.4879 60.0698 75.819 60.4162 75.9005 60.3632C77.2157 59.5253 78 58.0971 78 56.5374C78 53.4393 74.9692 51.5106 72.7394 52.0688L68.5124 53.1328C72.1871 49.0624 74.6234 43.8875 75.3072 38.218C76.8574 37.7901 78 36.3661 78 34.6808ZM63.9814 54.2742L46.3012 58.7243C46.0739 57.9459 45.6543 57.2116 45.0432 56.5998L36.6196 48.1769C35.5752 47.1325 34.1869 46.5571 32.7093 46.5571H21.324C19.9892 44.0464 19.0727 41.2798 18.6675 38.3513H72.9762C72.1003 44.7146 68.8106 50.3728 63.9814 54.2742Z" fill="black"/>
</g>
<defs>
<clipPath id="clip0_422_330">
<rect width="78" height="78" fill="white"/>
</clipPath>
</defs>
</svg>
