<svg width="15" height="17" viewBox="0 0 15 17" fill="none" xmlns="http://www.w3.org/2000/svg">
<path d="M13.5 5.90192C15.5 7.05662 15.5 9.94338 13.5 11.0981L5.25 15.8612C3.25 17.0159 0.750001 15.5725 0.750001 13.2631L0.750002 3.73686C0.750002 1.42746 3.25 -0.0159168 5.25 1.13878L13.5 5.90192Z" fill="#6346BF"/>
</svg>
